Analyzing Trends in Summer Olympic Games Medals
…
In general, the net amount of medals won is favored by sports within which have multiple opportunities to medal. One example includes Athletics, also known as Track and Field, having multiple races, team relays, and field events for athletes to earn medals in. Other result by contrasting by gender shows both the lack of female inclusion for a significant period of time, reflecting gender dynamics over the decades, as well as sports that are more dominated by one gender. Synchronized Swimming, Rhythmic Gymnastics appear to only have female champions, while Wrestling, the Modern Pentathlon, Rugby, and Lacrosse appear to have majority male winners.

2. Olympic medal winning womens heights and weights

#weight in kg
# Athletics = track and field
# Hockey = Field Hockey
#Leaving out figure skating because  1920s Olympics, one gold winner

golden_girls <- summer_medals %>% 
  filter(sex == "F") %>% 
  drop_na(height, weight) 
golden_girls

## # A tibble: 8,665 x 16
##       id name    sex     age height weight team   noc   games  year season city 
##    <dbl> <chr>   <chr> <dbl>  <dbl>  <dbl> <chr>  <chr> <chr> <dbl> <chr>  <chr>
##  1    37 Ann Kr~ F        23    182     64 Norway NOR   1996~  1996 Summer Atla~
##  2    65 Patima~ F        21    165     49 Azerb~ AZE   2016~  2016 Summer Rio ~
##  3    67 Mariya~ F        22    179     80 Russia RUS   2008~  2008 Summer Beij~
##  4    90 Tamila~ F        21    163     60 Russia RUS   2004~  2004 Summer Athi~
##  5   153 Monica~ F        23    191     88 Unite~ USA   2008~  2008 Summer Beij~
##  6   165 Nia Ni~ F        20    175     56 Unite~ USA   2004~  2004 Summer Athi~
##  7   259 Reema ~ F        21    173     59 Canada CAN   1984~  1984 Summer Los ~
##  8   394 Irene ~ F        19    160     48 East ~ GDR   1972~  1972 Summer Muni~
##  9   395 Jennif~ F        20    160     62 Canada CAN   2012~  2012 Summer Lond~
## 10   428 Elvan ~ F        25    159     40 Turkey TUR   2008~  2008 Summer Beij~
## # ... with 8,655 more rows, and 4 more variables: sport <chr>, event <chr>,
## #   medal <chr>, countryName <chr>
…
The second is Wearing protective gear. The athletes in this category are wearing an extra layer designed for their sport to reduce injury.

The third is In water. As it sounds, these athletes are found in the water to compete.

Lastly, there is Just self. These athletes are not holding anything, wearing something meant to protect them, or are in the water.

equip_gg <- golden_girls %>% 
  filter(sport == c("Badminton", "Cycling", "Equestrianism", "Golf",  "Hockey", "Shooting", "Softball", "Table Tennis", "Tennis", "Rhythmic Gymnastics", "Weightlifting"))

## Warning in sport == c("Badminton", "Cycling", "Equestrianism", "Golf",
## "Hockey", : longer object length is not a multiple of shorter object length

equip_gg

## # A tibble: 133 x 16
##       id name    sex     age height weight team   noc   games  year season city 
##    <dbl> <chr>   <chr> <dbl>  <dbl>  <dbl> <chr>  <chr> <chr> <dbl> <chr>  <chr>
##  1  1169 "Maril~ F        33    172     58 Nethe~ NED   2012~  2012 Summer Lond~
##  2  1546 "Eirin~ F        17    167     45 Greece GRE   2000~  2000 Summer Sydn~
##  3  4418 "Alyso~ F        27    162     65 Austr~ AUS   2000~  2000 Summer Sydn~
##  4  6624 "Diana~ F        33    175     85 Italy  ITA   2016~  2016 Summer Rio ~
##  5 11448 "Fiona~ F        40    173     75 Great~ GBR   2016~  2016 Summer Rio ~
##  6 12113 "Elisa~ F        16    168     49 Italy  ITA   2004~  2004 Summer Athi~
##  7 14578 "Jeane~ F        26    169     60 Great~ GBR   2000~  2000 Summer Sydn~
##  8 15540 "Joann~ F        28    174     72 Austr~ AUS   2000~  2000 Summer Sydn~
##  9 17479 "Els C~ F        30    177     58 Belgi~ BEL   2000~  2000 Summer Sydn~
## 10 22054 "Mario~ F        32    170     60 France FRA   1996~  1996 Summer Atla~
## # ... with 123 more rows, and 4 more variables: sport <chr>, event <chr>,
## #   medal <chr>, countryName <chr>

armor_gg <- golden_girls %>% 
  filter(sport == c("Boxing", "Judo", "Fencing", "Football", "Taekwondo", "Rugby Sevens"))

## Warning in sport == c("Boxing", "Judo", "Fencing", "Football", "Taekwondo", :
## longer object length is not a multiple of shorter object length

armor_gg

## # A tibble: 152 x 16
##       id name    sex     age height weight team   noc   games  year season city 
##    <dbl> <chr>   <chr> <dbl>  <dbl>  <dbl> <chr>  <chr> <chr> <dbl> <chr>  <chr>
##  1  1191 "Judit~ F        27    164     62 Hunga~ HUN   1964~  1964 Summer Tokyo
##  2  1730 "Monic~ F        26    183     74 Unite~ USA   2016~  2016 Summer Rio ~
##  3  2769 "Kimia~ F        18    185     57 Iran   IRI   2016~  2016 Summer Rio ~
##  4  3593 "An Ku~ F        28    160     52 North~ PRK   2008~  2008 Summer Beij~
##  5  4101 "Andri~ F        26    175     65 Brazil BRA   2004~  2004 Summer Athi~
##  6  5631 "Kosov~ F        27    166     56 Sweden SWE   2016~  2016 Summer Rio ~
##  7  7597 "Bao Y~ F        24    172     67 China  CHN   2008~  2008 Summer Beij~
##  8  7717 "Brbar~ F        20    171     71 Brazil BRA   2008~  2008 Summer Beij~
##  9  7920 "Valri~ F        27    165     53 France FRA   1996~  1996 Summer Atla~
## 10  8364 "Saski~ F        33    170     60 Germa~ GER   2016~  2016 Summer Rio ~
## # ... with 142 more rows, and 4 more variables: sport <chr>, event <chr>,
## #   medal <chr>, countryName <chr>

hydro_gg <- golden_girls %>% 
  filter(sport == c("Canoeing", "Diving", "Water Polo", "Rowing", "Swimming", "Synchronized Swimming", "Sailing"))

## Warning in sport == c("Canoeing", "Diving", "Water Polo", "Rowing",
## "Swimming", : longer object length is not a multiple of shorter object length

hydro_gg

## # A tibble: 406 x 16
##       id name    sex     age height weight team   noc   games  year season city 
##    <dbl> <chr>   <chr> <dbl>  <dbl>  <dbl> <chr>  <chr> <chr> <dbl> <chr>  <chr>
##  1   395 "Jenni~ F        20    160     62 Canada CAN   2012~  2012 Summer Lond~
##  2   980 "Rebec~ F        23    179     70 Great~ GBR   2012~  2012 Summer Lond~
##  3  1380 "Chris~ F        22    172     52 Unite~ USA   1992~  1992 Summer Barc~
##  4  2443 "Joan ~ F        17    170     59 Unite~ USA   1952~  1952 Summer Hels~
##  5  2464 "Jo Qe~ F        30    171     58 New Z~ NZL   2016~  2016 Summer Rio ~
##  6  2575 "Lisa ~ F        27    172     58 Canada CAN   1996~  1996 Summer Atla~
##  7  3070 "Malin~ F        23    180     64 Sweden SWE   2000~  2000 Summer Sydn~
##  8  3880 "Agnet~ F        31    172     68 Sweden SWE   1992~  1992 Summer Barc~
##  9  4393 "Herta~ F        26    183     82 Roman~ ROU   1988~  1988 Summer Seoul
## 10  4720 "Tessa~ F        27    177     71 Nethe~ NED   2000~  2000 Summer Sydn~
## # ... with 396 more rows, and 4 more variables: sport <chr>, event <chr>,
## #   medal <chr>, countryName <chr>

solo_gg <- golden_girls %>%
  filter(sport == c("Athletics", "Basketball", "Beach Volleyball", "Gymnastics", "Handball", "Trampolining", "Triathalon", "Volleyball", "Wrestling" ))

## Warning in sport == c("Athletics", "Basketball", "Beach Volleyball",
## "Gymnastics", : longer object length is not a multiple of shorter object length

solo_gg

## # A tibble: 353 x 16
##       id name     sex     age height weight team  noc   games  year season city 
##    <dbl> <chr>    <chr> <dbl>  <dbl>  <dbl> <chr> <chr> <chr> <dbl> <chr>  <chr>
##  1   428 Elvan A~ F        25    159     40 Turk~ TUR   2008~  2008 Summer Beij~
##  2   610 Ginko A~ F        26    148     46 Japan JPN   1964~  1964 Summer Tokyo
##  3  1020 Adriana~ F        29    180     61 Braz~ BRA   2000~  2000 Summer Sydn~
##  4  1071 Kseniya~ F        20    158     48 Russ~ RUS   2012~  2012 Summer Lond~
##  5  1254 Macaren~ F        27    170     67 Spain ESP   2012~  2012 Summer Lond~
##  6  1313 Robyn M~ F        32    172     67 Unit~ USA   2008~  2008 Summer Beij~
##  7  1564 Chioma ~ F        24    164     57 Nige~ NGR   1996~  1996 Summer Atla~
##  8  1732 Liudmyl~ F        29    165     58 Sovi~ URS   1976~  1976 Summer Mont~
##  9  2546 Alessan~ F        22    200     85 Braz~ BRA   1996~  1996 Summer Atla~
## 10  3281 Simona ~ F        16    158     44 Roma~ ROU   1996~  1996 Summer Atla~
## # ... with 343 more rows, and 4 more variables: sport <chr>, event <chr>,
## #   medal <chr>, countryName <chr>
…
